%YAML 1.1
%TAG !u! tag:unity3d.com,2011:
--- !u!114 &11400000
MonoBehaviour:
  m_ObjectHideFlags: 0
  m_PrefabParentObject: {fileID: 0}
  m_PrefabInternal: {fileID: 0}
  m_GameObject: {fileID: 0}
  m_Enabled: 1
  m_EditorHideFlags: 0
  m_Script: {fileID: 11500000, guid: d2abb0ffe9cecb4418a98878ea9227d7, type: 3}
  m_Name: Game Properties
  m_EditorClassIdentifier: 
  WalkSpeed: 7.77
  MaxJumps: 2
  JumpStrength: 17.38
  Gravity: -20.45
  FollowPlayer: 1
  CameraDistance: 4.2
  CameraOffset: {x: -0.00000010038677, y: 0, z: 0}
  CameraDelay: 0.57
  WalkingEnemyPatrolSpeed: 3
  WalkingEnemyRunSpeed: 4.5
  WalkingEnemyPathRange: 6.79
  WalkEnemySightRadius: 5.94
  TurretSightRadius: 5.71
  TurretFireRate: 1.16
  TurretShotSpeed: 6.6
